{
  "generateToken": {
    "id": 430513,
    "token": "YRIj5kqzW2OiLD0HiNuavUuh6fUU8S",
    "expires": "2020-09-08T10:20:21Z",
    "created": "2020-08-24T10:20:21Z"
  },
  "createIntegrationChannel": {
    "id": 40,
    "name": "fixture-2",
    "channel_id": "_",
    "is_active": true,
    "channel_type": "Other",
    "channel_use": "Other",
    "counterparty": {
      "id": 24,
      "name": "kyle",
      "code": "code2",
      "desk_code": "desk3",
      "default_user": "cfets.trader@ipushpull.com"
    },
    "workflow_type": { "id": 1, "tag": "test" },
    "meta_data": null
  },
  "createCounterparty": {
    "id": 25,
    "name": "cp-1",
    "code": "cp-code-1",
    "desk_code": "",
    "default_user": null
  },
  "workflowEvent": { "info": "NOTE_SENT message sent to 1 counterparty" },
  "createFolder": {
    "id": 1229,
    "url": "https://test.ipushpull.com/api/1.0/domains/1229/",
    "by_name_url": "https://test.ipushpull.com/api/1.0/domains/name/folder/",
    "name": "folder",
    "display_name": null,
    "description": null,
    "encryption_enabled": false,
    "logo_url": null,
    "login_screen_background_color": null,
    "page_access_url": "https://test.ipushpull.com/api/1.0/domains/1229/page_access/",
    "access_groups_url": "https://test.ipushpull.com/api/1.0/domains/1229/access_groups/",
    "users_url": "https://test.ipushpull.com/api/1.0/domains/1229/users/",
    "created_by": {
      "id": 3392,
      "url": "https://test.ipushpull.com/api/1.0/domains/1229/users/3392/",
      "screen_name": "kylehengst",
      "first_name": "kyle",
      "last_name": "hengst",
      "organization_id": 27,
      "organization_name": "ipushpull"
    },
    "created_timestamp": "2020-08-24T10:48:26.479944Z",
    "modified_by": {
      "id": 3392,
      "url": "https://test.ipushpull.com/api/1.0/domains/1229/users/3392/",
      "screen_name": "kylehengst",
      "first_name": "kyle",
      "last_name": "hengst",
      "organization_id": 27,
      "organization_name": "ipushpull"
    },
    "modified_timestamp": "2020-08-24T10:48:26.480032Z",
    "current_user_domain_access": {
      "default_page_id": null,
      "default_page_url": null,
      "domain_id": 1229,
      "domain_url": "https://test.ipushpull.com/api/1.0/domains/1229/",
      "is_active": true,
      "is_administrator": true,
      "access_level": "FA",
      "is_pending": false,
      "is_default_domain": false,
      "page_count": 1,
      "user_id": 3392,
      "user_url": "https://test.ipushpull.com/api/1.0/domains/1229/users/3392/"
    },
    "page_access_mode": 0,
    "is_page_access_mode_selectable": false,
    "domain_type": 0,
    "is_paying_customer": true,
    "default_push_interval": 1,
    "default_pull_interval": 1,
    "email_updates": false,
    "email_updates_new_page": false,
    "default_ws_enabled": false,
    "default_symphony_sid": "",
    "workflow_type": null,
    "meta_data": []
  },
  "createDomain": {
    "id": 1230,
    "url": "https://test.ipushpull.com/api/1.0/domains/1230/",
    "by_name_url": "https://test.ipushpull.com/api/1.0/domains/name/kylehengst_workflow/",
    "name": "kylehengst_workflow",
    "display_name": "",
    "description": null,
    "encryption_enabled": false,
    "logo_url": null,
    "login_screen_background_color": null,
    "page_access_url": "https://test.ipushpull.com/api/1.0/domains/1230/page_access/",
    "access_groups_url": "https://test.ipushpull.com/api/1.0/domains/1230/access_groups/",
    "users_url": "https://test.ipushpull.com/api/1.0/domains/1230/users/",
    "created_by": {
      "id": 3392,
      "url": "https://test.ipushpull.com/api/1.0/domains/1230/users/3392/",
      "screen_name": "kylehengst",
      "first_name": "kyle",
      "last_name": "hengst",
      "organization_id": 27,
      "organization_name": "ipushpull"
    },
    "created_timestamp": "2020-08-24T10:51:52.134631Z",
    "modified_by": {
      "id": 3392,
      "url": "https://test.ipushpull.com/api/1.0/domains/1230/users/3392/",
      "screen_name": "kylehengst",
      "first_name": "kyle",
      "last_name": "hengst",
      "organization_id": 27,
      "organization_name": "ipushpull"
    },
    "modified_timestamp": "2020-08-24T10:51:52.134693Z",
    "current_user_domain_access": {
      "default_page_id": null,
      "default_page_url": null,
      "domain_id": 1230,
      "domain_url": "https://test.ipushpull.com/api/1.0/domains/1230/",
      "is_active": true,
      "is_administrator": true,
      "access_level": "FA",
      "is_pending": false,
      "is_default_domain": false,
      "page_count": 1,
      "user_id": 3392,
      "user_url": "https://test.ipushpull.com/api/1.0/domains/1230/users/3392/"
    },
    "page_access_mode": 1,
    "is_page_access_mode_selectable": false,
    "domain_type": 0,
    "is_paying_customer": true,
    "default_push_interval": 1,
    "default_pull_interval": 1,
    "email_updates": false,
    "email_updates_new_page": false,
    "default_ws_enabled": false,
    "default_symphony_sid": "",
    "workflow_type": { "id": 1, "tag": "test" },
    "meta_data": []
  },
  "createPageWebhook": {
    "id": 43,
    "enabled": true,
    "include_link": true,
    "include_content": true,
    "max_cols": 0,
    "max_rows": 0,
    "destination": {
      "id": 98,
      "delivery_type": "teams_webhook",
      "destination": "https://outlook.office.com/webhook/a3cec0aa-12ef-4a75-876f-16c0c34a1710@2a4efb7a-9281-4b6b-8b77-749e81ed24f1/IncomingWebhook/91bd05beb75b4638bb52c06766684b5f/2be73827-289d-4725-8224-a9f2244b6870",
      "name": "kh_teams",
      "owner": 3392,
      "recipients": [],
      "organization_public": false,
      "modified_by": 3392
    }
  },
  "createPage": {
    "by_name_url": "https://test.ipushpull.com/api/1.0/domains/name/ippkyle_test/pages/name/create/",
    "id": 48923,
    "name": "create",
    "description": "",
    "url": "https://test.ipushpull.com/api/1.0/domains/id/881/pages/id/48923/",
    "uuid": "nfrtX4gTR6vCimkA9SXRfy",
    "background_color": "",
    "content": [[]],
    "content_modified_by": {
      "id": 3392,
      "url": "https://test.ipushpull.com/api/1.0/domains/881/users/3392/",
      "screen_name": "kylehengst",
      "first_name": "kyle",
      "last_name": "hengst",
      "organization_id": 27,
      "organization_name": "ipushpull"
    },
    "content_modified_timestamp": "2020-08-24T10:58:48.815432Z",
    "created_by": {
      "id": 3392,
      "url": "https://test.ipushpull.com/api/1.0/domains/881/users/3392/",
      "screen_name": "kylehengst",
      "first_name": "kyle",
      "last_name": "hengst",
      "organization_id": 27,
      "organization_name": "ipushpull"
    },
    "created_timestamp": "2020-08-24T10:58:48.824751Z",
    "domain_id": 881,
    "domain_name": null,
    "domain_url": "https://test.ipushpull.com/api/1.0/domains/881/",
    "encrypted_content": "",
    "encryption_key_to_use": "",
    "encryption_key_used": "",
    "encryption_type_to_use": 0,
    "encryption_type_used": 0,
    "is_obscured_public": false,
    "is_public": false,
    "organization_public": false,
    "is_anonymous": false,
    "is_template": false,
    "modified_by": {
      "id": 3392,
      "url": "https://test.ipushpull.com/api/1.0/domains/881/users/3392/",
      "screen_name": "kylehengst",
      "first_name": "kyle",
      "last_name": "hengst",
      "organization_id": 27,
      "organization_name": "ipushpull"
    },
    "modified_timestamp": "2020-08-24T10:58:48.824832Z",
    "pull_interval": 1,
    "push_interval": 1,
    "record_history": false,
    "page_schema": null,
    "seq_no": 1,
    "show_gridlines": false,
    "special_page_type": 10,
    "website_url": "https://test.ipushpull.com/pages/domains/881/pages/48923",
    "ws_enabled": false,
    "restricted_anonymous_update": false,
    "symphony_sid": "",
    "range_access": "",
    "action_definitions": "",
    "connected_page": false,
    "connected_channel": null,
    "record_history_mode": "Optional",
    "webhooks_enabled": false,
    "workflow": null
  },
  "createPageNotification": null,
  "createPageContentNotification": null,
  "resetPassword": null,
  "inviteUsers": [
    {
      "id": 1294,
      "url": "https://test.ipushpull.com/api/1.0/domains/457/invitations/1294/",
      "email": "kyle.hengst@gmail.com",
      "invited_user": {
        "id": 3394,
        "url": "https://test.ipushpull.com/api/1.0/domains/457/users/3394/",
        "screen_name": "kylegmail",
        "first_name": "kyle",
        "last_name": "gmail",
        "organization_id": 27,
        "organization_name": "ipushpull"
      },
      "domain": 457,
      "domain_access": {
        "is_active": true,
        "is_administrator": true,
        "is_pending": false
      },
      "type": "existing_user_referral",
      "type_display": "existing_user_referral",
      "status": "already_has_access",
      "status_display": "already_has_access",
      "email_count": 0,
      "created_timestamp": "2020-08-24T12:20:43.016326Z",
      "created_by": {
        "id": 3392,
        "url": "https://test.ipushpull.com/api/1.0/domains/457/users/3392/",
        "screen_name": "kylehengst",
        "first_name": "kyle",
        "last_name": "hengst",
        "organization_id": 27,
        "organization_name": "ipushpull"
      },
      "completed_timestamp": "2020-08-24T12:20:43.015821Z",
      "completed_by": {
        "id": 3392,
        "url": "https://test.ipushpull.com/api/1.0/domains/457/users/3392/",
        "screen_name": "kylehengst",
        "first_name": "kyle",
        "last_name": "hengst",
        "organization_id": 27,
        "organization_name": "ipushpull"
      },
      "is_complete": true,
      "customer": null
    }
  ],
  "acceptInvitation": {
    "id": 3392,
    "url": "https://test.ipushpull.com/api/1.0/domains/534/users/3392/",
    "email": "kyle.hengst@ipushpull.com",
    "screen_name": "kylehengst",
    "first_name": "kyle",
    "last_name": "hengst",
    "job_title": "",
    "is_populated": true,
    "is_active": true,
    "is_pending": false,
    "mobile_phone_number": "",
    "pushbullet_id": "",
    "account_type": "regular",
    "organization_id": 27,
    "organization_name": "ipushpull",
    "acted_obo_by": [],
    "acts_obo_for": [],
    "type": "existing_user_referral"
  },
  "createDomainNotificationDestination": {
    "id": 142,
    "delivery_type": "teams_webhook",
    "owner": 3392,
    "recipients": [],
    "destination": "https://outlook.office.com/webhook/a3cec0aa-12ef-4a75-876f-16c0c34a1710@2a4efb7a-9281-4b6b-8b77-749e81ed24f1/IncomingWebhook/91bd05beb75b4638bb52c06766684b5f/2be73827-289d-4725-8224-a9f2244b6870",
    "name": "kyle_teams",
    "organization_public": true,
    "modified_by": 3392
  },
  "createNotificationDestination": {
    "id": 144,
    "delivery_type": "teams_webhook",
    "owner": 3392,
    "recipients": [],
    "destination": "https://outlook.office.com/webhook/a3cec0aa-12ef-4a75-876f-16c0c34a1710@2a4efb7a-9281-4b6b-8b77-749e81ed24f1/IncomingWebhook/91bd05beb75b4638bb52c06766684b5f/2be73827-289d-4725-8224-a9f2244b6870",
    "name": "kyle_teams_2",
    "organization_public": true,
    "modified_by": 3392
  },
  "createNotification": null,
  "addDomainAccessGroup": {
    "id": 10886,
    "url": "https://test.ipushpull.com/api/1.0/domains/457/access_groups/10886/",
    "name": "fixture",
    "description": null,
    "write_access": false,
    "domain_url": "https://test.ipushpull.com/api/1.0/domains/457/",
    "members": [],
    "non_members": [
      {
        "id": 3614,
        "email": "cfets.sales@ipushpull.com",
        "screen_name": "CFETS_Sales",
        "full_name": "CFETS Sales"
      },
      {
        "id": 3524,
        "email": "crookedfingers79@gmail.com",
        "screen_name": "crookedfingers79_gmail_com",
        "full_name": "kyle trial"
      },
      {
        "id": 3465,
        "email": "cypress.test@ipushpull.com",
        "screen_name": "kylebilling",
        "full_name": "kyle billing"
      },
      {
        "id": 3252,
        "email": "david.jones@ipushpull.com",
        "screen_name": "DavidJonesiPushPull",
        "full_name": "David Jones"
      },
      {
        "id": 3548,
        "email": "kyle.hengst+1707@gmail.com",
        "screen_name": "kylehengst1707",
        "full_name": "kyle 1707"
      },
      {
        "id": 3493,
        "email": "kyle.hengst+invite@gmail.com",
        "screen_name": "kyleinvite",
        "full_name": "kyle invite"
      },
      {
        "id": 3394,
        "email": "kyle.hengst@gmail.com",
        "screen_name": "kylegmail",
        "full_name": "kyle gmail"
      },
      {
        "id": 3392,
        "email": "kyle.hengst@ipushpull.com",
        "screen_name": "kylehengst",
        "full_name": "kyle hengst"
      },
      {
        "id": 3501,
        "email": "kyle.packages@ipushpull.com",
        "screen_name": "kyle_packages_ipushpull_com",
        "full_name": "kyle test"
      }
    ],
    "pages": [],
    "non_pages": [
      {
        "id": 47787,
        "name": "Alerts",
        "is_public": false,
        "special_page_type": 5,
        "own_page": true
      },
      {
        "id": 47788,
        "name": "Alerts2",
        "is_public": false,
        "special_page_type": 5,
        "own_page": true
      },
      {
        "id": 45530,
        "name": "b1348_clone_1529",
        "is_public": true,
        "special_page_type": 0,
        "own_page": true
      },
      {
        "id": 45633,
        "name": "big",
        "is_public": true,
        "special_page_type": 0,
        "own_page": true
      },
      {
        "id": 46026,
        "name": "blank",
        "is_public": false,
        "special_page_type": 0,
        "own_page": true
      },
      {
        "id": 47995,
        "name": "Calendar",
        "is_public": true,
        "special_page_type": 0,
        "own_page": true
      },
      {
        "id": 45963,
        "name": "CFETS",
        "is_public": false,
        "special_page_type": 0,
        "own_page": true
      },
      {
        "id": 44210,
        "name": "clone1126",
        "is_public": true,
        "special_page_type": 0,
        "own_page": true
      },
      {
        "id": 46087,
        "name": "columnwidth",
        "is_public": false,
        "special_page_type": 0,
        "own_page": true
      },
      {
        "id": 46098,
        "name": "componentpage",
        "is_public": false,
        "special_page_type": 0,
        "own_page": true
      },
      {
        "id": 46099,
        "name": "componentpage2",
        "is_public": false,
        "special_page_type": 0,
        "own_page": true
      },
      {
        "id": 45678,
        "name": "connected",
        "is_public": false,
        "special_page_type": 0,
        "own_page": true
      },
      {
        "id": 48597,
        "name": "content",
        "is_public": false,
        "special_page_type": 0,
        "own_page": true
      },
      {
        "id": 45627,
        "name": "corporations",
        "is_public": false,
        "special_page_type": 0,
        "own_page": true
      },
      {
        "id": 45626,
        "name": "darren",
        "is_public": true,
        "special_page_type": 0,
        "own_page": true
      },
      {
        "id": 45578,
        "name": "demo",
        "is_public": true,
        "special_page_type": 0,
        "own_page": true
      },
      {
        "id": 45579,
        "name": "demo2",
        "is_public": true,
        "special_page_type": 0,
        "own_page": true
      },
      {
        "id": 45580,
        "name": "demo3",
        "is_public": false,
        "special_page_type": 0,
        "own_page": true
      },
      {
        "id": 45581,
        "name": "demo4",
        "is_public": false,
        "special_page_type": 8,
        "own_page": true
      },
      {
        "id": 47186,
        "name": "demo4_clone_5367",
        "is_public": false,
        "special_page_type": 8,
        "own_page": true
      },
      {
        "id": 47183,
        "name": "demo4_clone_6066",
        "is_public": false,
        "special_page_type": 8,
        "own_page": true
      },
      {
        "id": 47181,
        "name": "demo4_clone_7376",
        "is_public": false,
        "special_page_type": 8,
        "own_page": true
      },
      {
        "id": 47185,
        "name": "demo4_clone_7482",
        "is_public": false,
        "special_page_type": 8,
        "own_page": true
      },
      {
        "id": 47184,
        "name": "demo4_clone_8220",
        "is_public": false,
        "special_page_type": 8,
        "own_page": true
      },
      {
        "id": 47182,
        "name": "demo4_clone_8635",
        "is_public": false,
        "special_page_type": 8,
        "own_page": true
      },
      {
        "id": 45582,
        "name": "demo5",
        "is_public": false,
        "special_page_type": 0,
        "own_page": true
      },
      {
        "id": 44149,
        "name": "e1424",
        "is_public": true,
        "special_page_type": 0,
        "own_page": true
      },
      {
        "id": 44150,
        "name": "e1431",
        "is_public": false,
        "special_page_type": 0,
        "own_page": true
      },
      {
        "id": 45645,
        "name": "empty",
        "is_public": false,
        "special_page_type": 0,
        "own_page": true
      },
      {
        "id": 44129,
        "name": "f1043",
        "is_public": true,
        "special_page_type": 0,
        "own_page": true
      },
      {
        "id": 47815,
        "name": "fff",
        "is_public": false,
        "special_page_type": 5,
        "own_page": true
      },
      {
        "id": 45574,
        "name": "fin",
        "is_public": false,
        "special_page_type": 0,
        "own_page": true
      },
      {
        "id": 45543,
        "name": "finsemble",
        "is_public": false,
        "special_page_type": 0,
        "own_page": true
      },
      {
        "id": 45569,
        "name": "formatting",
        "is_public": false,
        "special_page_type": 0,
        "own_page": true
      },
      {
        "id": 48686,
        "name": "formatting_clone_5576",
        "is_public": false,
        "special_page_type": 0,
        "own_page": true
      },
      {
        "id": 44133,
        "name": "g1134",
        "is_public": false,
        "special_page_type": 0,
        "own_page": true
      },
      {
        "id": 46142,
        "name": "gmailpage",
        "is_public": false,
        "special_page_type": 0,
        "own_page": false
      },
      {
        "id": 47865,
        "name": "h_j__h__h",
        "is_public": false,
        "special_page_type": 5,
        "own_page": true
      },
      {
        "id": 48575,
        "name": "IPPWEBAPP-962",
        "is_public": true,
        "special_page_type": 0,
        "own_page": true
      },
      {
        "id": 46927,
        "name": "jarvis",
        "is_public": false,
        "special_page_type": 0,
        "own_page": true
      },
      {
        "id": 48073,
        "name": "k6_1",
        "is_public": false,
        "special_page_type": 0,
        "own_page": true
      },
      {
        "id": 48075,
        "name": "k6_2",
        "is_public": false,
        "special_page_type": 0,
        "own_page": true
      },
      {
        "id": 44130,
        "name": "kgmail",
        "is_public": false,
        "special_page_type": 0,
        "own_page": false
      },
      {
        "id": 46143,
        "name": "kh1707",
        "is_public": false,
        "special_page_type": 0,
        "own_page": false
      },
      {
        "id": 45654,
        "name": "merge",
        "is_public": true,
        "special_page_type": 0,
        "own_page": true
      },
      {
        "id": 48219,
        "name": "n10",
        "is_public": false,
        "special_page_type": 10,
        "own_page": true
      },
      {
        "id": 48220,
        "name": "n11",
        "is_public": false,
        "special_page_type": 10,
        "own_page": true
      },
      {
        "id": 48221,
        "name": "n12",
        "is_public": false,
        "special_page_type": 10,
        "own_page": true
      },
      {
        "id": 48227,
        "name": "n13",
        "is_public": false,
        "special_page_type": 10,
        "own_page": true
      },
      {
        "id": 48514,
        "name": "n14",
        "is_public": false,
        "special_page_type": 10,
        "own_page": true
      },
      {
        "id": 48515,
        "name": "n15",
        "is_public": false,
        "special_page_type": 10,
        "own_page": true
      },
      {
        "id": 48156,
        "name": "n7",
        "is_public": false,
        "special_page_type": 10,
        "own_page": true
      },
      {
        "id": 48217,
        "name": "n8",
        "is_public": false,
        "special_page_type": 10,
        "own_page": true
      },
      {
        "id": 48218,
        "name": "n9",
        "is_public": false,
        "special_page_type": 10,
        "own_page": true
      },
      {
        "id": 45644,
        "name": "new",
        "is_public": false,
        "special_page_type": 0,
        "own_page": true
      },
      {
        "id": 46195,
        "name": "newpage",
        "is_public": false,
        "special_page_type": 0,
        "own_page": true
      },
      {
        "id": 47997,
        "name": "np",
        "is_public": false,
        "special_page_type": 5,
        "own_page": true
      },
      {
        "id": 47998,
        "name": "np2",
        "is_public": false,
        "special_page_type": 10,
        "own_page": true
      },
      {
        "id": 48004,
        "name": "np3",
        "is_public": false,
        "special_page_type": 10,
        "own_page": true
      },
      {
        "id": 48005,
        "name": "np4",
        "is_public": false,
        "special_page_type": 10,
        "own_page": true
      },
      {
        "id": 48006,
        "name": "np5",
        "is_public": false,
        "special_page_type": 10,
        "own_page": true
      },
      {
        "id": 48007,
        "name": "np6",
        "is_public": false,
        "special_page_type": 10,
        "own_page": true
      },
      {
        "id": 45575,
        "name": "NWM_Axes",
        "is_public": true,
        "special_page_type": 0,
        "own_page": true
      },
      {
        "id": 46229,
        "name": "pa",
        "is_public": true,
        "special_page_type": 0,
        "own_page": false
      },
      {
        "id": 46765,
        "name": "Page_Name",
        "is_public": false,
        "special_page_type": 0,
        "own_page": true
      },
      {
        "id": 44127,
        "name": "pasted",
        "is_public": true,
        "special_page_type": 0,
        "own_page": true
      },
      {
        "id": 46117,
        "name": "pasted123",
        "is_public": false,
        "special_page_type": 0,
        "own_page": true
      },
      {
        "id": 44128,
        "name": "pasteds",
        "is_public": false,
        "special_page_type": 0,
        "own_page": true
      },
      {
        "id": 45628,
        "name": "pdf",
        "is_public": false,
        "special_page_type": 6,
        "own_page": true
      },
      {
        "id": 46150,
        "name": "pdftest",
        "is_public": false,
        "special_page_type": 6,
        "own_page": true
      },
      {
        "id": 46645,
        "name": "schema",
        "is_public": false,
        "special_page_type": 8,
        "own_page": true
      },
      {
        "id": 46733,
        "name": "schema2",
        "is_public": false,
        "special_page_type": 8,
        "own_page": true
      },
      {
        "id": 46756,
        "name": "schema3",
        "is_public": true,
        "special_page_type": 8,
        "own_page": true
      },
      {
        "id": 45898,
        "name": "singlecell",
        "is_public": false,
        "special_page_type": 0,
        "own_page": true
      },
      {
        "id": 46151,
        "name": "skore",
        "is_public": true,
        "special_page_type": 0,
        "own_page": true
      },
      {
        "id": 45640,
        "name": "teams",
        "is_public": false,
        "special_page_type": 0,
        "own_page": true
      },
      {
        "id": 46118,
        "name": "template123",
        "is_public": false,
        "special_page_type": 0,
        "own_page": true
      },
      {
        "id": 44123,
        "name": "test",
        "is_public": false,
        "special_page_type": 0,
        "own_page": true
      },
      {
        "id": 47162,
        "name": "test001",
        "is_public": false,
        "special_page_type": 0,
        "own_page": true
      },
      {
        "id": 47163,
        "name": "test002",
        "is_public": true,
        "special_page_type": 0,
        "own_page": true
      },
      {
        "id": 45583,
        "name": "test2",
        "is_public": true,
        "special_page_type": 0,
        "own_page": true
      },
      {
        "id": 45591,
        "name": "test3",
        "is_public": true,
        "special_page_type": 0,
        "own_page": true
      },
      {
        "id": 44137,
        "name": "testbed",
        "is_public": true,
        "special_page_type": 0,
        "own_page": true
      },
      {
        "id": 44288,
        "name": "testpdf",
        "is_public": true,
        "special_page_type": 6,
        "own_page": true
      },
      {
        "id": 46780,
        "name": "tsc",
        "is_public": false,
        "special_page_type": 0,
        "own_page": true
      },
      {
        "id": 45566,
        "name": "workflow",
        "is_public": false,
        "special_page_type": 0,
        "own_page": true
      },
      {
        "id": 46152,
        "name": "workflowclone",
        "is_public": true,
        "special_page_type": 0,
        "own_page": true
      },
      {
        "id": 47152,
        "name": "workflow_0822",
        "is_public": false,
        "special_page_type": 0,
        "own_page": true
      },
      {
        "id": 46937,
        "name": "workflow_12345",
        "is_public": false,
        "special_page_type": 0,
        "own_page": true
      },
      {
        "id": 46938,
        "name": "workflow_1234_clone_1486",
        "is_public": false,
        "special_page_type": 0,
        "own_page": true
      },
      {
        "id": 47387,
        "name": "workflow_clone_1696",
        "is_public": false,
        "special_page_type": 0,
        "own_page": true
      },
      {
        "id": 47393,
        "name": "workflow_clone_3869",
        "is_public": false,
        "special_page_type": 0,
        "own_page": true
      },
      {
        "id": 47389,
        "name": "workflow_clone_4809",
        "is_public": false,
        "special_page_type": 0,
        "own_page": true
      },
      {
        "id": 47391,
        "name": "workflow_clone_4911",
        "is_public": false,
        "special_page_type": 0,
        "own_page": true
      },
      {
        "id": 47392,
        "name": "workflow_clone_4911_clone_5402",
        "is_public": false,
        "special_page_type": 0,
        "own_page": true
      },
      {
        "id": 47390,
        "name": "workflow_clone_5626",
        "is_public": false,
        "special_page_type": 0,
        "own_page": true
      },
      {
        "id": 46778,
        "name": "workflow_clone_8301",
        "is_public": false,
        "special_page_type": 0,
        "own_page": true
      },
      {
        "id": 46779,
        "name": "workflow_clone_8301_clone_5573",
        "is_public": false,
        "special_page_type": 0,
        "own_page": true
      },
      {
        "id": 47388,
        "name": "workflow_clone_9461",
        "is_public": false,
        "special_page_type": 0,
        "own_page": true
      }
    ],
    "is_self_signup_default_group": false,
    "customer_id": null
  },
  "putDomainAgroupMembers": [{ "id": 3392 }],
  "putDomainAgroupPages": [{ "id": 46026 }],
  "createOrganizationUser": {
    "email": "e1613@kylehengst.com",
    "screen_name": "jimbob",
    "first_name": "Jim",
    "last_name": "bob",
    "job_title": "",
    "mobile_phone_number": "",
    "can_create_folders": false,
    "is_organization_admin": false,
    "is_active": true,
    "can_update_connected_page": false,
    "is_resource_admin": false,
    "is_workflow_designer": false,
    "is_notification_admin": false,
    "account_type": "regular"
  },
  "createSchema": {
    "id": 88,
    "name": "cypress",
    "schema": {
      "columns": [
        { "pk": true, "name": "a", "display_name": "A", "default_value": "" }
      ],
      "formats": {
        "header_rows": [
          {
            "a": {
              "style": {
                "background-color": "FFFFFF",
                "color": "000000",
                "font-family": "Arial",
                "font-size": "11pt",
                "font-style": "normal",
                "font-weight": "normal",
                "height": "20px",
                "number-format": "",
                "text-align": "left",
                "text-wrap": "normal",
                "vertical-align": "middle",
                "width": "64px",
                "tbs": "none",
                "rbs": "none",
                "bbs": "none",
                "lbs": "none",
                "tbc": "000000",
                "rbc": "000000",
                "bbc": "000000",
                "lbc": "000000",
                "tbw": "none",
                "rbw": "none",
                "bbw": "none",
                "lbw": "none"
              }
            }
          }
        ],
        "data_rows": [
          {
            "a": {
              "style": {
                "background-color": "FFFFFF",
                "color": "000000",
                "font-family": "Arial",
                "font-size": "11pt",
                "font-style": "normal",
                "font-weight": "normal",
                "height": "20px",
                "number-format": "",
                "text-align": "left",
                "text-wrap": "normal",
                "vertical-align": "middle",
                "width": "64px",
                "tbs": "none",
                "rbs": "none",
                "bbs": "none",
                "lbs": "none",
                "tbc": "000000",
                "rbc": "000000",
                "bbc": "000000",
                "lbc": "000000",
                "tbw": "none",
                "rbw": "none",
                "bbw": "none",
                "lbw": "none"
              }
            }
          },
          {
            "a": {
              "style": {
                "background-color": "FFFFFF",
                "color": "000000",
                "font-family": "Arial",
                "font-size": "11pt",
                "font-style": "normal",
                "font-weight": "normal",
                "height": "20px",
                "number-format": "",
                "text-align": "left",
                "text-wrap": "normal",
                "vertical-align": "middle",
                "width": "64px",
                "tbs": "none",
                "rbs": "none",
                "bbs": "none",
                "lbs": "none",
                "tbc": "000000",
                "rbc": "000000",
                "bbc": "000000",
                "lbc": "000000",
                "tbw": "none",
                "rbw": "none",
                "bbw": "none",
                "lbw": "none"
              }
            }
          }
        ]
      },
      "auto_insert_rows": true,
      "header_rows": true
    }
  },
  "createUserDelegate": {
    "id": 49,
    "user": {
      "id": 3394,
      "email": "kyle.hengst@gmail.com",
      "screen_name": "kylegmail",
      "first_name": "kyle",
      "last_name": "gmail"
    },
    "service_account": {
      "id": 3663,
      "email": "fxorfq@ipushpull.com",
      "screen_name": "fxorfq",
      "first_name": "fxorfq",
      "last_name": "bot"
    },
    "modified_by": {
      "id": 3392,
      "email": "kyle.hengst@ipushpull.com",
      "screen_name": "kylehengst",
      "first_name": "kyle",
      "last_name": "hengst"
    },
    "created_by": {
      "id": 3392,
      "email": "kyle.hengst@ipushpull.com",
      "screen_name": "kylehengst",
      "first_name": "kyle",
      "last_name": "hengst"
    },
    "created_timestamp": "2020-06-18T15:23:03.486481Z",
    "modified_timestamp": "2020-08-24T13:05:41.054171Z",
    "is_active": true,
    "read_only": false
  }
}
